[
  {
    "arguments": [
      "/usr/bin/gcc",
      "-c",
      "-fpic",
      "-pthread",
      "-O0",
      "-I/usr/include/glib-2.0",
      "-I/usr/lib64/glib-2.0/include",
      "-I/usr/include/sysprof-6",
      "-pthread",
      "-I/usr/include/nautilus",
      "-I/usr/include/glib-2.0",
      "-I/usr/lib64/glib-2.0/include",
      "-DWITH_GZFILEOP",
      "-I/usr/include/libmount",
      "-I/usr/include/blkid",
      "-I/usr/include/sysprof-6",
      "-pthread",
      "-I/usr/include/gtk-4.0",
      "-I/usr/include/pango-1.0",
      "-I/usr/include/gdk-pixbuf-2.0",
      "-I/usr/include/cairo",
      "-I/usr/include/harfbuzz",
      "-I/usr/include/freetype2",
      "-I/usr/include/graphene-1.0",
      "-I/usr/lib64/graphene-1.0/include",
      "-mfpmath=sse",
      "-msse",
      "-msse2",
      "-I/usr/include/glib-2.0",
      "-I/usr/lib64/glib-2.0/include",
      "-I/usr/include/fribidi",
      "-I/usr/include/webp",
      "-I/usr/include/libxml2",
      "-I/usr/include/libpng16",
      "-I/usr/include/pixman-1",
      "-DWITH_GZFILEOP",
      "-I/usr/include/libmount",
      "-I/usr/include/blkid",
      "-I/usr/include/sysprof-6",
      "-pthread",
      "-o",
      "bin/NautilusEntryPoint.o",
      "Src/NautilusEntryPoint.c"
    ],
    "directory": "/var/home/zach/Source/Projects/NautilusOpenWithCode",
    "file": "/var/home/zach/Source/Projects/NautilusOpenWithCode/Src/NautilusEntryPoint.c",
    "output": "/var/home/zach/Source/Projects/NautilusOpenWithCode/bin/NautilusEntryPoint.o"
  },
  {
    "arguments": [
      "/usr/bin/gcc",
      "-c",
      "-fpic",
      "-pthread",
      "-O0",
      "-I/usr/include/glib-2.0",
      "-I/usr/lib64/glib-2.0/include",
      "-I/usr/include/sysprof-6",
      "-pthread",
      "-I/usr/include/nautilus",
      "-I/usr/include/glib-2.0",
      "-I/usr/lib64/glib-2.0/include",
      "-DWITH_GZFILEOP",
      "-I/usr/include/libmount",
      "-I/usr/include/blkid",
      "-I/usr/include/sysprof-6",
      "-pthread",
      "-I/usr/include/gtk-4.0",
      "-I/usr/include/pango-1.0",
      "-I/usr/include/gdk-pixbuf-2.0",
      "-I/usr/include/cairo",
      "-I/usr/include/harfbuzz",
      "-I/usr/include/freetype2",
      "-I/usr/include/graphene-1.0",
      "-I/usr/lib64/graphene-1.0/include",
      "-mfpmath=sse",
      "-msse",
      "-msse2",
      "-I/usr/include/glib-2.0",
      "-I/usr/lib64/glib-2.0/include",
      "-I/usr/include/fribidi",
      "-I/usr/include/webp",
      "-I/usr/include/libxml2",
      "-I/usr/include/libpng16",
      "-I/usr/include/pixman-1",
      "-DWITH_GZFILEOP",
      "-I/usr/include/libmount",
      "-I/usr/include/blkid",
      "-I/usr/include/sysprof-6",
      "-pthread",
      "-o",
      "bin/NautilusOpenWithCode.o",
      "Src/NautilusOpenWithCode.c"
    ],
    "directory": "/var/home/zach/Source/Projects/NautilusOpenWithCode",
    "file": "/var/home/zach/Source/Projects/NautilusOpenWithCode/Src/NautilusOpenWithCode.c",
    "output": "/var/home/zach/Source/Projects/NautilusOpenWithCode/bin/NautilusOpenWithCode.o"
  }
]
